module taxi_services

go 1.21

require (
	github.com/davecgh/go-spew v1.1.2-0.20180830191138-d8f796af33cc
	github.com/getkin/kin-openapi v0.122.0
	github.com/go-chi/chi/v5 v5.0.10
	github.com/golang-migrate/migrate/v4 v4.17.0
	github.com/golang/mock v1.6.0
	github.com/jmoiron/sqlx v1.3.5
	github.com/lib/pq v1.10.9
	github.com/oapi-codegen/runtime v1.1.0
	github.com/pressly/goose/v3 v3.17.0
	github.com/segmentio/kafka-go v0.4.47
	github.com/stretchr/testify v1.8.4
	github.com/testcontainers/testcontainers-go v0.27.0
	go.mongodb.org/mongo-driver v1.13.1
)

require (
	dario.cat/mergo v1.0.0 // indirect
	github.com/Azure/go-ansiterm v0.0.0-20230124172434-306776ec8161 // indirect
	github.com/Microsoft/go-winio v0.6.1 // indirect
	github.com/Microsoft/hcsshim v0.11.4 // indirect
	github.com/apapsch/go-jsonmerge/v2 v2.0.0 // indirect
	github.com/beorn7/perks v1.0.1 // indirect
	github.com/cenkalti/backoff/v4 v4.2.1 // indirect
	github.com/cespare/xxhash/v2 v2.2.0 // indirect
	github.com/containerd/containerd v1.7.11 // indirect
	github.com/containerd/log v0.1.0 // indirect
	github.com/cpuguy83/dockercfg v0.3.1 // indirect
	github.com/docker/distribution v2.8.2+incompatible // indirect
	github.com/docker/docker v24.0.7+incompatible // indirect
	github.com/docker/go-connections v0.4.0 // indirect
	github.com/docker/go-units v0.5.0 // indirect
	github.com/go-logr/logr v1.3.0 // indirect
	github.com/go-logr/stdr v1.2.2 // indirect
	github.com/go-ole/go-ole v1.2.6 // indirect
	github.com/go-openapi/jsonpointer v0.19.6 // indirect
	github.com/go-openapi/swag v0.22.4 // indirect
	github.com/gogo/protobuf v1.3.2 // indirect
	github.com/golang/protobuf v1.5.3 // indirect
	github.com/golang/snappy v0.0.4 // indirect
	github.com/google/uuid v1.4.0 // indirect
	github.com/grpc-ecosystem/grpc-gateway/v2 v2.16.0 // indirect
	github.com/hashicorp/errwrap v1.1.0 // indirect
	github.com/hashicorp/go-multierror v1.1.1 // indirect
	github.com/invopop/yaml v0.2.0 // indirect
	github.com/josharian/intern v1.0.0 // indirect
	github.com/klauspost/compress v1.17.2 // indirect
	github.com/kr/pretty v0.3.1 // indirect
	github.com/lufia/plan9stats v0.0.0-20211012122336-39d0f177ccd0 // indirect
	github.com/magiconair/properties v1.8.7 // indirect
	github.com/mailru/easyjson v0.7.7 // indirect
	github.com/matttproud/golang_protobuf_extensions v1.0.4 // indirect
	github.com/moby/patternmatcher v0.6.0 // indirect
	github.com/moby/sys/sequential v0.5.0 // indirect
	github.com/moby/term v0.5.0 // indirect
	github.com/mohae/deepcopy v0.0.0-20170929034955-c48cc78d4826 // indirect
	github.com/montanaflynn/stats v0.0.0-20171201202039-1bf9dbcd8cbe // indirect
	github.com/morikuni/aec v1.0.0 // indirect
	github.com/opencontainers/go-digest v1.0.0 // indirect
	github.com/opencontainers/image-spec v1.1.0-rc5 // indirect
	github.com/opencontainers/runc v1.1.10 // indirect
	github.com/perimeterx/marshmallow v1.1.5 // indirect
	github.com/pierrec/lz4/v4 v4.1.18 // indirect
	github.com/pkg/errors v0.9.1 // indirect
	github.com/pmezard/go-difflib v1.0.1-0.20181226105442-5d4384ee4fb2 // indirect
	github.com/power-devops/perfstat v0.0.0-20210106213030-5aafc221ea8c // indirect
	github.com/prometheus/client_golang v1.17.0 // indirect
	github.com/prometheus/client_model v0.4.1-0.20230718164431-9a2bf3000d16 // indirect
	github.com/prometheus/common v0.44.0 // indirect
	github.com/prometheus/procfs v0.12.0 // indirect
	github.com/sethvargo/go-retry v0.2.4 // indirect
	github.com/shirou/gopsutil/v3 v3.23.11 // indirect
	github.com/shoenig/go-m1cpu v0.1.6 // indirect
	github.com/sirupsen/logrus v1.9.3 // indirect
	github.com/tklauser/go-sysconf v0.3.12 // indirect
	github.com/tklauser/numcpus v0.6.1 // indirect
	github.com/xdg-go/pbkdf2 v1.0.0 // indirect
	github.com/xdg-go/scram v1.1.2 // indirect
	github.com/xdg-go/stringprep v1.0.4 // indirect
	github.com/youmark/pkcs8 v0.0.0-20181117223130-1be2e3e5546d // indirect
	github.com/yusufpapurcu/wmi v1.2.3 // indirect
	go.opentelemetry.io/otel v1.21.0 // indirect
	go.opentelemetry.io/otel/exporters/otlp/otlptrace v1.21.0 // indirect
	go.opentelemetry.io/otel/exporters/otlp/otlptrace/otlptracegrpc v1.21.0 // indirect
	go.opentelemetry.io/otel/exporters/stdout/stdoutmetric v0.44.0 // indirect
	go.opentelemetry.io/otel/metric v1.21.0 // indirect
	go.opentelemetry.io/otel/sdk v1.21.0 // indirect
	go.opentelemetry.io/otel/sdk/metric v1.21.0 // indirect
	go.opentelemetry.io/otel/trace v1.21.0 // indirect
	go.opentelemetry.io/proto/otlp v1.0.0 // indirect
	go.uber.org/atomic v1.9.0 // indirect
	go.uber.org/multierr v1.11.0 // indirect
	golang.org/x/crypto v0.17.0 // indirect
	golang.org/x/exp v0.0.0-20230905200255-921286631fa9 // indirect
	golang.org/x/mod v0.14.0 // indirect
	golang.org/x/net v0.19.0 // indirect
	golang.org/x/sync v0.5.0 // indirect
	golang.org/x/sys v0.15.0 // indirect
	golang.org/x/text v0.14.0 // indirect
	golang.org/x/time v0.5.0 // indirect
	golang.org/x/tools v0.15.0 // indirect
	google.golang.org/genproto/googleapis/api v0.0.0-20231016165738-49dd2c1f3d0b // indirect
	google.golang.org/genproto/googleapis/rpc v0.0.0-20231120223509-83a465c0220f // indirect
	google.golang.org/grpc v1.59.0 // indirect
	google.golang.org/protobuf v1.31.0 // indirect
	gopkg.in/yaml.v3 v3.0.1 // indirect
)
